^C:\USERS\AAYUSHI\DOWNLOADS\CRYPTOPP565\PCH.CPP
C:\USERS\AAYUSHI\DOWNLOADS\CRYPTOPP565\WIN32\CRYPTLIB\DEBUG\CRYPTLIB.PCH
C:\USERS\AAYUSHI\DOWNLOADS\CRYPTOPP565\WIN32\CRYPTLIB\DEBUG\CRYPTLIB.PDB
C:\USERS\AAYUSHI\DOWNLOADS\CRYPTOPP565\WIN32\CRYPTLIB\DEBUG\PCH.OBJ
^C:\USERS\AAYUSHI\DOWNLOADS\CRYPTOPP565\3WAY.CPP|C:\USERS\AAYUSHI\DOWNLOADS\CRYPTOPP565\ADLER32.CPP|C:\USERS\AAYUSHI\DOWNLOADS\CRYPTOPP565\ALGEBRA.CPP|C:\USERS\AAYUSHI\DOWNLOADS\CRYPTOPP565\ALGPARAM.CPP|C:\USERS\AAYUSHI\DOWNLOADS\CRYPTOPP565\ARC4.CPP|C:\USERS\AAYUSHI\DOWNLOADS\CRYPTOPP565\ASN.CPP|C:\USERS\AAYUSHI\DOWNLOADS\CRYPTOPP565\AUTHENC.CPP|C:\USERS\AAYUSHI\DOWNLOADS\CRYPTOPP565\BASE32.CPP|C:\USERS\AAYUSHI\DOWNLOADS\CRYPTOPP565\BASE64.CPP|C:\USERS\AAYUSHI\DOWNLOADS\CRYPTOPP565\BASECODE.CPP|C:\USERS\AAYUSHI\DOWNLOADS\CRYPTOPP565\BFINIT.CPP|C:\USERS\AAYUSHI\DOWNLOADS\CRYPTOPP565\BLAKE2.CPP|C:\USERS\AAYUSHI\DOWNLOADS\CRYPTOPP565\BLOWFISH.CPP|C:\USERS\AAYUSHI\DOWNLOADS\CRYPTOPP565\BLUMSHUB.CPP|C:\USERS\AAYUSHI\DOWNLOADS\CRYPTOPP565\CAMELLIA.CPP|C:\USERS\AAYUSHI\DOWNLOADS\CRYPTOPP565\CAST.CPP|C:\USERS\AAYUSHI\DOWNLOADS\CRYPTOPP565\CASTS.CPP|C:\USERS\AAYUSHI\DOWNLOADS\CRYPTOPP565\CBCMAC.CPP|C:\USERS\AAYUSHI\DOWNLOADS\CRYPTOPP565\CCM.CPP|C:\USERS\AAYUSHI\DOWNLOADS\CRYPTOPP565\CHACHA.CPP|C:\USERS\AAYUSHI\DOWNLOADS\CRYPTOPP565\CHANNELS.CPP|C:\USERS\AAYUSHI\DOWNLOADS\CRYPTOPP565\CMAC.CPP|C:\USERS\AAYUSHI\DOWNLOADS\CRYPTOPP565\CPU.CPP|C:\USERS\AAYUSHI\DOWNLOADS\CRYPTOPP565\CRC.CPP|C:\USERS\AAYUSHI\DOWNLOADS\CRYPTOPP565\CRYPTLIB.CPP|C:\USERS\AAYUSHI\DOWNLOADS\CRYPTOPP565\DEFAULT.CPP|C:\USERS\AAYUSHI\DOWNLOADS\CRYPTOPP565\DES.CPP|C:\USERS\AAYUSHI\DOWNLOADS\CRYPTOPP565\DESSP.CPP|C:\USERS\AAYUSHI\DOWNLOADS\CRYPTOPP565\DH.CPP|C:\USERS\AAYUSHI\DOWNLOADS\CRYPTOPP565\DH2.CPP|C:\USERS\AAYUSHI\DOWNLOADS\CRYPTOPP565\DSA.CPP|C:\USERS\AAYUSHI\DOWNLOADS\CRYPTOPP565\EAX.CPP|C:\USERS\AAYUSHI\DOWNLOADS\CRYPTOPP565\EC2N.CPP|C:\USERS\AAYUSHI\DOWNLOADS\CRYPTOPP565\ECP.CPP|C:\USERS\AAYUSHI\DOWNLOADS\CRYPTOPP565\ELGAMAL.CPP|C:\USERS\AAYUSHI\DOWNLOADS\CRYPTOPP565\EMSA2.CPP|C:\USERS\AAYUSHI\DOWNLOADS\CRYPTOPP565\ESIGN.CPP|C:\USERS\AAYUSHI\DOWNLOADS\CRYPTOPP565\FILES.CPP|C:\USERS\AAYUSHI\DOWNLOADS\CRYPTOPP565\FILTERS.CPP|C:\USERS\AAYUSHI\DOWNLOADS\CRYPTOPP565\FIPS140.CPP|C:\USERS\AAYUSHI\DOWNLOADS\CRYPTOPP565\FIPSTEST.CPP|C:\USERS\AAYUSHI\DOWNLOADS\CRYPTOPP565\GCM.CPP|C:\USERS\AAYUSHI\DOWNLOADS\CRYPTOPP565\GF256.CPP|C:\USERS\AAYUSHI\DOWNLOADS\CRYPTOPP565\GF2N.CPP|C:\USERS\AAYUSHI\DOWNLOADS\CRYPTOPP565\GF2_32.CPP|C:\USERS\AAYUSHI\DOWNLOADS\CRYPTOPP565\GFPCRYPT.CPP|C:\USERS\AAYUSHI\DOWNLOADS\CRYPTOPP565\GOST.CPP|C:\USERS\AAYUSHI\DOWNLOADS\CRYPTOPP565\GZIP.CPP|C:\USERS\AAYUSHI\DOWNLOADS\CRYPTOPP565\HEX.CPP|C:\USERS\AAYUSHI\DOWNLOADS\CRYPTOPP565\HMAC.CPP|C:\USERS\AAYUSHI\DOWNLOADS\CRYPTOPP565\HRTIMER.CPP|C:\USERS\AAYUSHI\DOWNLOADS\CRYPTOPP565\IDA.CPP|C:\USERS\AAYUSHI\DOWNLOADS\CRYPTOPP565\IDEA.CPP|C:\USERS\AAYUSHI\DOWNLOADS\CRYPTOPP565\INTEGER.CPP|C:\USERS\AAYUSHI\DOWNLOADS\CRYPTOPP565\KECCAK.CPP|C:\USERS\AAYUSHI\DOWNLOADS\CRYPTOPP565\LUC.CPP|C:\USERS\AAYUSHI\DOWNLOADS\CRYPTOPP565\MARS.CPP|C:\USERS\AAYUSHI\DOWNLOADS\CRYPTOPP565\MARSS.CPP|C:\USERS\AAYUSHI\DOWNLOADS\CRYPTOPP565\MD2.CPP|C:\USERS\AAYUSHI\DOWNLOADS\CRYPTOPP565\MD4.CPP|C:\USERS\AAYUSHI\DOWNLOADS\CRYPTOPP565\MD5.CPP|C:\USERS\AAYUSHI\DOWNLOADS\CRYPTOPP565\MISC.CPP|C:\USERS\AAYUSHI\DOWNLOADS\CRYPTOPP565\MODES.CPP|C:\USERS\AAYUSHI\DOWNLOADS\CRYPTOPP565\MQUEUE.CPP|C:\USERS\AAYUSHI\DOWNLOADS\CRYPTOPP565\MQV.CPP|C:\USERS\AAYUSHI\DOWNLOADS\CRYPTOPP565\NBTHEORY.CPP|C:\USERS\AAYUSHI\DOWNLOADS\CRYPTOPP565\NETWORK.CPP|C:\USERS\AAYUSHI\DOWNLOADS\CRYPTOPP565\OAEP.CPP|C:\USERS\AAYUSHI\DOWNLOADS\CRYPTOPP565\OSRNG.CPP|C:\USERS\AAYUSHI\DOWNLOADS\CRYPTOPP565\PANAMA.CPP|C:\USERS\AAYUSHI\DOWNLOADS\CRYPTOPP565\PKCSPAD.CPP|C:\USERS\AAYUSHI\DOWNLOADS\CRYPTOPP565\POLYNOMI.CPP|C:\USERS\AAYUSHI\DOWNLOADS\CRYPTOPP565\PSSR.CPP|C:\USERS\AAYUSHI\DOWNLOADS\CRYPTOPP565\PUBKEY.CPP|C:\USERS\AAYUSHI\DOWNLOADS\CRYPTOPP565\QUEUE.CPP|C:\USERS\AAYUSHI\DOWNLOADS\CRYPTOPP565\RABIN.CPP|C:\USERS\AAYUSHI\DOWNLOADS\CRYPTOPP565\RANDPOOL.CPP|C:\USERS\AAYUSHI\DOWNLOADS\CRYPTOPP565\RC2.CPP|C:\USERS\AAYUSHI\DOWNLOADS\CRYPTOPP565\RC5.CPP|C:\USERS\AAYUSHI\DOWNLOADS\CRYPTOPP565\RC6.CPP|C:\USERS\AAYUSHI\DOWNLOADS\CRYPTOPP565\RDRAND.CPP|C:\USERS\AAYUSHI\DOWNLOADS\CRYPTOPP565\RDTABLES.CPP|C:\USERS\AAYUSHI\DOWNLOADS\CRYPTOPP565\RIJNDAEL.CPP|C:\USERS\AAYUSHI\DOWNLOADS\CRYPTOPP565\RIPEMD.CPP|C:\USERS\AAYUSHI\DOWNLOADS\CRYPTOPP565\RNG.CPP|C:\USERS\AAYUSHI\DOWNLOADS\CRYPTOPP565\RSA.CPP|C:\USERS\AAYUSHI\DOWNLOADS\CRYPTOPP565\RW.CPP|C:\USERS\AAYUSHI\DOWNLOADS\CRYPTOPP565\SAFER.CPP|C:\USERS\AAYUSHI\DOWNLOADS\CRYPTOPP565\SALSA.CPP|C:\USERS\AAYUSHI\DOWNLOADS\CRYPTOPP565\SEAL.CPP|C:\USERS\AAYUSHI\DOWNLOADS\CRYPTOPP565\SEED.CPP|C:\USERS\AAYUSHI\DOWNLOADS\CRYPTOPP565\SERPENT.CPP|C:\USERS\AAYUSHI\DOWNLOADS\CRYPTOPP565\SHA.CPP|C:\USERS\AAYUSHI\DOWNLOADS\CRYPTOPP565\SHA3.CPP|C:\USERS\AAYUSHI\DOWNLOADS\CRYPTOPP565\SHACAL2.CPP|C:\USERS\AAYUSHI\DOWNLOADS\CRYPTOPP565\SHARK.CPP|C:\USERS\AAYUSHI\DOWNLOADS\CRYPTOPP565\SHARKBOX.CPP|C:\USERS\AAYUSHI\DOWNLOADS\CRYPTOPP565\SIMPLE.CPP|C:\USERS\AAYUSHI\DOWNLOADS\CRYPTOPP565\SKIPJACK.CPP|C:\USERS\AAYUSHI\DOWNLOADS\CRYPTOPP565\SOCKETFT.CPP|C:\USERS\AAYUSHI\DOWNLOADS\CRYPTOPP565\SOSEMANUK.CPP|C:\USERS\AAYUSHI\DOWNLOADS\CRYPTOPP565\SQUARE.CPP|C:\USERS\AAYUSHI\DOWNLOADS\CRYPTOPP565\SQUARETB.CPP|C:\USERS\AAYUSHI\DOWNLOADS\CRYPTOPP565\STRCIPHR.CPP|C:\USERS\AAYUSHI\DOWNLOADS\CRYPTOPP565\TEA.CPP|C:\USERS\AAYUSHI\DOWNLOADS\CRYPTOPP565\TFTABLES.CPP|C:\USERS\AAYUSHI\DOWNLOADS\CRYPTOPP565\TIGER.CPP|C:\USERS\AAYUSHI\DOWNLOADS\CRYPTOPP565\TIGERTAB.CPP|C:\USERS\AAYUSHI\DOWNLOADS\CRYPTOPP565\TRDLOCAL.CPP|C:\USERS\AAYUSHI\DOWNLOADS\CRYPTOPP565\TTMAC.CPP|C:\USERS\AAYUSHI\DOWNLOADS\CRYPTOPP565\TWOFISH.CPP|C:\USERS\AAYUSHI\DOWNLOADS\CRYPTOPP565\VMAC.CPP|C:\USERS\AAYUSHI\DOWNLOADS\CRYPTOPP565\WAIT.CPP|C:\USERS\AAYUSHI\DOWNLOADS\CRYPTOPP565\WAKE.CPP|C:\USERS\AAYUSHI\DOWNLOADS\CRYPTOPP565\WHRLPOOL.CPP|C:\USERS\AAYUSHI\DOWNLOADS\CRYPTOPP565\WINPIPES.CPP|C:\USERS\AAYUSHI\DOWNLOADS\CRYPTOPP565\XTR.CPP|C:\USERS\AAYUSHI\DOWNLOADS\CRYPTOPP565\XTRCRYPT.CPP|C:\USERS\AAYUSHI\DOWNLOADS\CRYPTOPP565\ZDEFLATE.CPP|C:\USERS\AAYUSHI\DOWNLOADS\CRYPTOPP565\ZINFLATE.CPP|C:\USERS\AAYUSHI\DOWNLOADS\CRYPTOPP565\ZLIB.CPP
C:\USERS\AAYUSHI\DOWNLOADS\CRYPTOPP565\WIN32\CRYPTLIB\DEBUG\CRYPTLIB.PDB
C:\USERS\AAYUSHI\DOWNLOADS\CRYPTOPP565\WIN32\CRYPTLIB\DEBUG\CASTS.OBJ
C:\USERS\AAYUSHI\DOWNLOADS\CRYPTOPP565\WIN32\CRYPTLIB\DEBUG\CAST.OBJ
C:\USERS\AAYUSHI\DOWNLOADS\CRYPTOPP565\WIN32\CRYPTLIB\DEBUG\CAMELLIA.OBJ
C:\USERS\AAYUSHI\DOWNLOADS\CRYPTOPP565\WIN32\CRYPTLIB\DEBUG\BLUMSHUB.OBJ
C:\USERS\AAYUSHI\DOWNLOADS\CRYPTOPP565\WIN32\CRYPTLIB\DEBUG\BLOWFISH.OBJ
C:\USERS\AAYUSHI\DOWNLOADS\CRYPTOPP565\WIN32\CRYPTLIB\DEBUG\BLAKE2.OBJ
C:\USERS\AAYUSHI\DOWNLOADS\CRYPTOPP565\WIN32\CRYPTLIB\DEBUG\BFINIT.OBJ
C:\USERS\AAYUSHI\DOWNLOADS\CRYPTOPP565\WIN32\CRYPTLIB\DEBUG\BASECODE.OBJ
C:\USERS\AAYUSHI\DOWNLOADS\CRYPTOPP565\WIN32\CRYPTLIB\DEBUG\BASE64.OBJ
C:\USERS\AAYUSHI\DOWNLOADS\CRYPTOPP565\WIN32\CRYPTLIB\DEBUG\BASE32.OBJ
C:\USERS\AAYUSHI\DOWNLOADS\CRYPTOPP565\WIN32\CRYPTLIB\DEBUG\AUTHENC.OBJ
C:\USERS\AAYUSHI\DOWNLOADS\CRYPTOPP565\WIN32\CRYPTLIB\DEBUG\ASN.OBJ
C:\USERS\AAYUSHI\DOWNLOADS\CRYPTOPP565\WIN32\CRYPTLIB\DEBUG\ARC4.OBJ
C:\USERS\AAYUSHI\DOWNLOADS\CRYPTOPP565\WIN32\CRYPTLIB\DEBUG\ALGPARAM.OBJ
C:\USERS\AAYUSHI\DOWNLOADS\CRYPTOPP565\WIN32\CRYPTLIB\DEBUG\ALGEBRA.OBJ
C:\USERS\AAYUSHI\DOWNLOADS\CRYPTOPP565\WIN32\CRYPTLIB\DEBUG\ADLER32.OBJ
C:\USERS\AAYUSHI\DOWNLOADS\CRYPTOPP565\WIN32\CRYPTLIB\DEBUG\3WAY.OBJ
C:\USERS\AAYUSHI\DOWNLOADS\CRYPTOPP565\WIN32\CRYPTLIB\DEBUG\INTEGER.OBJ
C:\USERS\AAYUSHI\DOWNLOADS\CRYPTOPP565\WIN32\CRYPTLIB\DEBUG\CPU.OBJ
C:\USERS\AAYUSHI\DOWNLOADS\CRYPTOPP565\WIN32\CRYPTLIB\DEBUG\CRYPTLIB.OBJ
C:\USERS\AAYUSHI\DOWNLOADS\CRYPTOPP565\WIN32\CRYPTLIB\DEBUG\FILTERS.OBJ
C:\USERS\AAYUSHI\DOWNLOADS\CRYPTOPP565\WIN32\CRYPTLIB\DEBUG\FILES.OBJ
C:\USERS\AAYUSHI\DOWNLOADS\CRYPTOPP565\WIN32\CRYPTLIB\DEBUG\ESIGN.OBJ
C:\USERS\AAYUSHI\DOWNLOADS\CRYPTOPP565\WIN32\CRYPTLIB\DEBUG\EMSA2.OBJ
C:\USERS\AAYUSHI\DOWNLOADS\CRYPTOPP565\WIN32\CRYPTLIB\DEBUG\ELGAMAL.OBJ
C:\USERS\AAYUSHI\DOWNLOADS\CRYPTOPP565\WIN32\CRYPTLIB\DEBUG\ECP.OBJ
C:\USERS\AAYUSHI\DOWNLOADS\CRYPTOPP565\WIN32\CRYPTLIB\DEBUG\EC2N.OBJ
C:\USERS\AAYUSHI\DOWNLOADS\CRYPTOPP565\WIN32\CRYPTLIB\DEBUG\EAX.OBJ
C:\USERS\AAYUSHI\DOWNLOADS\CRYPTOPP565\WIN32\CRYPTLIB\DEBUG\DSA.OBJ
C:\USERS\AAYUSHI\DOWNLOADS\CRYPTOPP565\WIN32\CRYPTLIB\DEBUG\DH2.OBJ
C:\USERS\AAYUSHI\DOWNLOADS\CRYPTOPP565\WIN32\CRYPTLIB\DEBUG\DH.OBJ
C:\USERS\AAYUSHI\DOWNLOADS\CRYPTOPP565\WIN32\CRYPTLIB\DEBUG\DESSP.OBJ
C:\USERS\AAYUSHI\DOWNLOADS\CRYPTOPP565\WIN32\CRYPTLIB\DEBUG\DES.OBJ
C:\USERS\AAYUSHI\DOWNLOADS\CRYPTOPP565\WIN32\CRYPTLIB\DEBUG\DEFAULT.OBJ
C:\USERS\AAYUSHI\DOWNLOADS\CRYPTOPP565\WIN32\CRYPTLIB\DEBUG\CRC.OBJ
C:\USERS\AAYUSHI\DOWNLOADS\CRYPTOPP565\WIN32\CRYPTLIB\DEBUG\CMAC.OBJ
C:\USERS\AAYUSHI\DOWNLOADS\CRYPTOPP565\WIN32\CRYPTLIB\DEBUG\CHANNELS.OBJ
C:\USERS\AAYUSHI\DOWNLOADS\CRYPTOPP565\WIN32\CRYPTLIB\DEBUG\CHACHA.OBJ
C:\USERS\AAYUSHI\DOWNLOADS\CRYPTOPP565\WIN32\CRYPTLIB\DEBUG\CCM.OBJ
C:\USERS\AAYUSHI\DOWNLOADS\CRYPTOPP565\WIN32\CRYPTLIB\DEBUG\CBCMAC.OBJ
C:\USERS\AAYUSHI\DOWNLOADS\CRYPTOPP565\WIN32\CRYPTLIB\DEBUG\MD4.OBJ
C:\USERS\AAYUSHI\DOWNLOADS\CRYPTOPP565\WIN32\CRYPTLIB\DEBUG\MD2.OBJ
C:\USERS\AAYUSHI\DOWNLOADS\CRYPTOPP565\WIN32\CRYPTLIB\DEBUG\MARSS.OBJ
C:\USERS\AAYUSHI\DOWNLOADS\CRYPTOPP565\WIN32\CRYPTLIB\DEBUG\MARS.OBJ
C:\USERS\AAYUSHI\DOWNLOADS\CRYPTOPP565\WIN32\CRYPTLIB\DEBUG\LUC.OBJ
C:\USERS\AAYUSHI\DOWNLOADS\CRYPTOPP565\WIN32\CRYPTLIB\DEBUG\KECCAK.OBJ
C:\USERS\AAYUSHI\DOWNLOADS\CRYPTOPP565\WIN32\CRYPTLIB\DEBUG\IDEA.OBJ
C:\USERS\AAYUSHI\DOWNLOADS\CRYPTOPP565\WIN32\CRYPTLIB\DEBUG\IDA.OBJ
C:\USERS\AAYUSHI\DOWNLOADS\CRYPTOPP565\WIN32\CRYPTLIB\DEBUG\HRTIMER.OBJ
C:\USERS\AAYUSHI\DOWNLOADS\CRYPTOPP565\WIN32\CRYPTLIB\DEBUG\HMAC.OBJ
C:\USERS\AAYUSHI\DOWNLOADS\CRYPTOPP565\WIN32\CRYPTLIB\DEBUG\HEX.OBJ
C:\USERS\AAYUSHI\DOWNLOADS\CRYPTOPP565\WIN32\CRYPTLIB\DEBUG\GZIP.OBJ
C:\USERS\AAYUSHI\DOWNLOADS\CRYPTOPP565\WIN32\CRYPTLIB\DEBUG\GOST.OBJ
C:\USERS\AAYUSHI\DOWNLOADS\CRYPTOPP565\WIN32\CRYPTLIB\DEBUG\GFPCRYPT.OBJ
C:\USERS\AAYUSHI\DOWNLOADS\CRYPTOPP565\WIN32\CRYPTLIB\DEBUG\GF2N.OBJ
C:\USERS\AAYUSHI\DOWNLOADS\CRYPTOPP565\WIN32\CRYPTLIB\DEBUG\GF2_32.OBJ
C:\USERS\AAYUSHI\DOWNLOADS\CRYPTOPP565\WIN32\CRYPTLIB\DEBUG\GF256.OBJ
C:\USERS\AAYUSHI\DOWNLOADS\CRYPTOPP565\WIN32\CRYPTLIB\DEBUG\GCM.OBJ
C:\USERS\AAYUSHI\DOWNLOADS\CRYPTOPP565\WIN32\CRYPTLIB\DEBUG\FIPSTEST.OBJ
C:\USERS\AAYUSHI\DOWNLOADS\CRYPTOPP565\WIN32\CRYPTLIB\DEBUG\FIPS140.OBJ
C:\USERS\AAYUSHI\DOWNLOADS\CRYPTOPP565\WIN32\CRYPTLIB\DEBUG\RC6.OBJ
C:\USERS\AAYUSHI\DOWNLOADS\CRYPTOPP565\WIN32\CRYPTLIB\DEBUG\RC5.OBJ
C:\USERS\AAYUSHI\DOWNLOADS\CRYPTOPP565\WIN32\CRYPTLIB\DEBUG\RC2.OBJ
C:\USERS\AAYUSHI\DOWNLOADS\CRYPTOPP565\WIN32\CRYPTLIB\DEBUG\RANDPOOL.OBJ
C:\USERS\AAYUSHI\DOWNLOADS\CRYPTOPP565\WIN32\CRYPTLIB\DEBUG\RABIN.OBJ
C:\USERS\AAYUSHI\DOWNLOADS\CRYPTOPP565\WIN32\CRYPTLIB\DEBUG\QUEUE.OBJ
C:\USERS\AAYUSHI\DOWNLOADS\CRYPTOPP565\WIN32\CRYPTLIB\DEBUG\PUBKEY.OBJ
C:\USERS\AAYUSHI\DOWNLOADS\CRYPTOPP565\WIN32\CRYPTLIB\DEBUG\PSSR.OBJ
C:\USERS\AAYUSHI\DOWNLOADS\CRYPTOPP565\WIN32\CRYPTLIB\DEBUG\POLYNOMI.OBJ
C:\USERS\AAYUSHI\DOWNLOADS\CRYPTOPP565\WIN32\CRYPTLIB\DEBUG\PKCSPAD.OBJ
C:\USERS\AAYUSHI\DOWNLOADS\CRYPTOPP565\WIN32\CRYPTLIB\DEBUG\PANAMA.OBJ
C:\USERS\AAYUSHI\DOWNLOADS\CRYPTOPP565\WIN32\CRYPTLIB\DEBUG\OSRNG.OBJ
C:\USERS\AAYUSHI\DOWNLOADS\CRYPTOPP565\WIN32\CRYPTLIB\DEBUG\OAEP.OBJ
C:\USERS\AAYUSHI\DOWNLOADS\CRYPTOPP565\WIN32\CRYPTLIB\DEBUG\NETWORK.OBJ
C:\USERS\AAYUSHI\DOWNLOADS\CRYPTOPP565\WIN32\CRYPTLIB\DEBUG\NBTHEORY.OBJ
C:\USERS\AAYUSHI\DOWNLOADS\CRYPTOPP565\WIN32\CRYPTLIB\DEBUG\MQV.OBJ
C:\USERS\AAYUSHI\DOWNLOADS\CRYPTOPP565\WIN32\CRYPTLIB\DEBUG\MQUEUE.OBJ
C:\USERS\AAYUSHI\DOWNLOADS\CRYPTOPP565\WIN32\CRYPTLIB\DEBUG\MODES.OBJ
C:\USERS\AAYUSHI\DOWNLOADS\CRYPTOPP565\WIN32\CRYPTLIB\DEBUG\MISC.OBJ
C:\USERS\AAYUSHI\DOWNLOADS\CRYPTOPP565\WIN32\CRYPTLIB\DEBUG\MD5.OBJ
C:\USERS\AAYUSHI\DOWNLOADS\CRYPTOPP565\WIN32\CRYPTLIB\DEBUG\SOCKETFT.OBJ
C:\USERS\AAYUSHI\DOWNLOADS\CRYPTOPP565\WIN32\CRYPTLIB\DEBUG\SKIPJACK.OBJ
C:\USERS\AAYUSHI\DOWNLOADS\CRYPTOPP565\WIN32\CRYPTLIB\DEBUG\SIMPLE.OBJ
C:\USERS\AAYUSHI\DOWNLOADS\CRYPTOPP565\WIN32\CRYPTLIB\DEBUG\SHARKBOX.OBJ
C:\USERS\AAYUSHI\DOWNLOADS\CRYPTOPP565\WIN32\CRYPTLIB\DEBUG\SHARK.OBJ
C:\USERS\AAYUSHI\DOWNLOADS\CRYPTOPP565\WIN32\CRYPTLIB\DEBUG\SHACAL2.OBJ
C:\USERS\AAYUSHI\DOWNLOADS\CRYPTOPP565\WIN32\CRYPTLIB\DEBUG\SHA3.OBJ
C:\USERS\AAYUSHI\DOWNLOADS\CRYPTOPP565\WIN32\CRYPTLIB\DEBUG\SHA.OBJ
C:\USERS\AAYUSHI\DOWNLOADS\CRYPTOPP565\WIN32\CRYPTLIB\DEBUG\SERPENT.OBJ
C:\USERS\AAYUSHI\DOWNLOADS\CRYPTOPP565\WIN32\CRYPTLIB\DEBUG\SEED.OBJ
C:\USERS\AAYUSHI\DOWNLOADS\CRYPTOPP565\WIN32\CRYPTLIB\DEBUG\SEAL.OBJ
C:\USERS\AAYUSHI\DOWNLOADS\CRYPTOPP565\WIN32\CRYPTLIB\DEBUG\SALSA.OBJ
C:\USERS\AAYUSHI\DOWNLOADS\CRYPTOPP565\WIN32\CRYPTLIB\DEBUG\SAFER.OBJ
C:\USERS\AAYUSHI\DOWNLOADS\CRYPTOPP565\WIN32\CRYPTLIB\DEBUG\RW.OBJ
C:\USERS\AAYUSHI\DOWNLOADS\CRYPTOPP565\WIN32\CRYPTLIB\DEBUG\RSA.OBJ
C:\USERS\AAYUSHI\DOWNLOADS\CRYPTOPP565\WIN32\CRYPTLIB\DEBUG\RNG.OBJ
C:\USERS\AAYUSHI\DOWNLOADS\CRYPTOPP565\WIN32\CRYPTLIB\DEBUG\RIPEMD.OBJ
C:\USERS\AAYUSHI\DOWNLOADS\CRYPTOPP565\WIN32\CRYPTLIB\DEBUG\RIJNDAEL.OBJ
C:\USERS\AAYUSHI\DOWNLOADS\CRYPTOPP565\WIN32\CRYPTLIB\DEBUG\RDTABLES.OBJ
C:\USERS\AAYUSHI\DOWNLOADS\CRYPTOPP565\WIN32\CRYPTLIB\DEBUG\RDRAND.OBJ
C:\USERS\AAYUSHI\DOWNLOADS\CRYPTOPP565\WIN32\CRYPTLIB\DEBUG\ZINFLATE.OBJ
C:\USERS\AAYUSHI\DOWNLOADS\CRYPTOPP565\WIN32\CRYPTLIB\DEBUG\ZDEFLATE.OBJ
C:\USERS\AAYUSHI\DOWNLOADS\CRYPTOPP565\WIN32\CRYPTLIB\DEBUG\XTRCRYPT.OBJ
C:\USERS\AAYUSHI\DOWNLOADS\CRYPTOPP565\WIN32\CRYPTLIB\DEBUG\XTR.OBJ
C:\USERS\AAYUSHI\DOWNLOADS\CRYPTOPP565\WIN32\CRYPTLIB\DEBUG\WINPIPES.OBJ
C:\USERS\AAYUSHI\DOWNLOADS\CRYPTOPP565\WIN32\CRYPTLIB\DEBUG\WHRLPOOL.OBJ
C:\USERS\AAYUSHI\DOWNLOADS\CRYPTOPP565\WIN32\CRYPTLIB\DEBUG\WAKE.OBJ
C:\USERS\AAYUSHI\DOWNLOADS\CRYPTOPP565\WIN32\CRYPTLIB\DEBUG\WAIT.OBJ
C:\USERS\AAYUSHI\DOWNLOADS\CRYPTOPP565\WIN32\CRYPTLIB\DEBUG\VMAC.OBJ
C:\USERS\AAYUSHI\DOWNLOADS\CRYPTOPP565\WIN32\CRYPTLIB\DEBUG\TWOFISH.OBJ
C:\USERS\AAYUSHI\DOWNLOADS\CRYPTOPP565\WIN32\CRYPTLIB\DEBUG\TTMAC.OBJ
C:\USERS\AAYUSHI\DOWNLOADS\CRYPTOPP565\WIN32\CRYPTLIB\DEBUG\TRDLOCAL.OBJ
C:\USERS\AAYUSHI\DOWNLOADS\CRYPTOPP565\WIN32\CRYPTLIB\DEBUG\TIGERTAB.OBJ
C:\USERS\AAYUSHI\DOWNLOADS\CRYPTOPP565\WIN32\CRYPTLIB\DEBUG\TIGER.OBJ
C:\USERS\AAYUSHI\DOWNLOADS\CRYPTOPP565\WIN32\CRYPTLIB\DEBUG\TFTABLES.OBJ
C:\USERS\AAYUSHI\DOWNLOADS\CRYPTOPP565\WIN32\CRYPTLIB\DEBUG\TEA.OBJ
C:\USERS\AAYUSHI\DOWNLOADS\CRYPTOPP565\WIN32\CRYPTLIB\DEBUG\STRCIPHR.OBJ
C:\USERS\AAYUSHI\DOWNLOADS\CRYPTOPP565\WIN32\CRYPTLIB\DEBUG\SQUARETB.OBJ
C:\USERS\AAYUSHI\DOWNLOADS\CRYPTOPP565\WIN32\CRYPTLIB\DEBUG\SQUARE.OBJ
C:\USERS\AAYUSHI\DOWNLOADS\CRYPTOPP565\WIN32\CRYPTLIB\DEBUG\SOSEMANUK.OBJ
C:\USERS\AAYUSHI\DOWNLOADS\CRYPTOPP565\WIN32\CRYPTLIB\DEBUG\ZLIB.OBJ
^C:\USERS\AAYUSHI\DOWNLOADS\CRYPTOPP565\CRYPTLIB.CPP
C:\USERS\AAYUSHI\DOWNLOADS\CRYPTOPP565\WIN32\CRYPTLIB\DEBUG\CRYPTLIB.PDB
^C:\USERS\AAYUSHI\DOWNLOADS\CRYPTOPP565\CPU.CPP
C:\USERS\AAYUSHI\DOWNLOADS\CRYPTOPP565\WIN32\CRYPTLIB\DEBUG\CRYPTLIB.PDB
^C:\USERS\AAYUSHI\DOWNLOADS\CRYPTOPP565\INTEGER.CPP
C:\USERS\AAYUSHI\DOWNLOADS\CRYPTOPP565\WIN32\CRYPTLIB\DEBUG\CRYPTLIB.PDB
^C:\USERS\AAYUSHI\DOWNLOADS\CRYPTOPP565\3WAY.CPP
C:\USERS\AAYUSHI\DOWNLOADS\CRYPTOPP565\WIN32\CRYPTLIB\DEBUG\CRYPTLIB.PDB
^C:\USERS\AAYUSHI\DOWNLOADS\CRYPTOPP565\ADLER32.CPP
C:\USERS\AAYUSHI\DOWNLOADS\CRYPTOPP565\WIN32\CRYPTLIB\DEBUG\CRYPTLIB.PDB
^C:\USERS\AAYUSHI\DOWNLOADS\CRYPTOPP565\ALGEBRA.CPP
C:\USERS\AAYUSHI\DOWNLOADS\CRYPTOPP565\WIN32\CRYPTLIB\DEBUG\CRYPTLIB.PDB
^C:\USERS\AAYUSHI\DOWNLOADS\CRYPTOPP565\ALGPARAM.CPP
C:\USERS\AAYUSHI\DOWNLOADS\CRYPTOPP565\WIN32\CRYPTLIB\DEBUG\CRYPTLIB.PDB
^C:\USERS\AAYUSHI\DOWNLOADS\CRYPTOPP565\ARC4.CPP
C:\USERS\AAYUSHI\DOWNLOADS\CRYPTOPP565\WIN32\CRYPTLIB\DEBUG\CRYPTLIB.PDB
^C:\USERS\AAYUSHI\DOWNLOADS\CRYPTOPP565\ASN.CPP
C:\USERS\AAYUSHI\DOWNLOADS\CRYPTOPP565\WIN32\CRYPTLIB\DEBUG\CRYPTLIB.PDB
^C:\USERS\AAYUSHI\DOWNLOADS\CRYPTOPP565\AUTHENC.CPP
C:\USERS\AAYUSHI\DOWNLOADS\CRYPTOPP565\WIN32\CRYPTLIB\DEBUG\CRYPTLIB.PDB
^C:\USERS\AAYUSHI\DOWNLOADS\CRYPTOPP565\BASE32.CPP
C:\USERS\AAYUSHI\DOWNLOADS\CRYPTOPP565\WIN32\CRYPTLIB\DEBUG\CRYPTLIB.PDB
^C:\USERS\AAYUSHI\DOWNLOADS\CRYPTOPP565\BASE64.CPP
C:\USERS\AAYUSHI\DOWNLOADS\CRYPTOPP565\WIN32\CRYPTLIB\DEBUG\CRYPTLIB.PDB
^C:\USERS\AAYUSHI\DOWNLOADS\CRYPTOPP565\BASECODE.CPP
C:\USERS\AAYUSHI\DOWNLOADS\CRYPTOPP565\WIN32\CRYPTLIB\DEBUG\CRYPTLIB.PDB
^C:\USERS\AAYUSHI\DOWNLOADS\CRYPTOPP565\BFINIT.CPP
C:\USERS\AAYUSHI\DOWNLOADS\CRYPTOPP565\WIN32\CRYPTLIB\DEBUG\CRYPTLIB.PDB
^C:\USERS\AAYUSHI\DOWNLOADS\CRYPTOPP565\BLAKE2.CPP
C:\USERS\AAYUSHI\DOWNLOADS\CRYPTOPP565\WIN32\CRYPTLIB\DEBUG\CRYPTLIB.PDB
^C:\USERS\AAYUSHI\DOWNLOADS\CRYPTOPP565\BLOWFISH.CPP
C:\USERS\AAYUSHI\DOWNLOADS\CRYPTOPP565\WIN32\CRYPTLIB\DEBUG\CRYPTLIB.PDB
^C:\USERS\AAYUSHI\DOWNLOADS\CRYPTOPP565\BLUMSHUB.CPP
C:\USERS\AAYUSHI\DOWNLOADS\CRYPTOPP565\WIN32\CRYPTLIB\DEBUG\CRYPTLIB.PDB
^C:\USERS\AAYUSHI\DOWNLOADS\CRYPTOPP565\CAMELLIA.CPP
C:\USERS\AAYUSHI\DOWNLOADS\CRYPTOPP565\WIN32\CRYPTLIB\DEBUG\CRYPTLIB.PDB
^C:\USERS\AAYUSHI\DOWNLOADS\CRYPTOPP565\CAST.CPP
C:\USERS\AAYUSHI\DOWNLOADS\CRYPTOPP565\WIN32\CRYPTLIB\DEBUG\CRYPTLIB.PDB
^C:\USERS\AAYUSHI\DOWNLOADS\CRYPTOPP565\CASTS.CPP
C:\USERS\AAYUSHI\DOWNLOADS\CRYPTOPP565\WIN32\CRYPTLIB\DEBUG\CRYPTLIB.PDB
^C:\USERS\AAYUSHI\DOWNLOADS\CRYPTOPP565\CBCMAC.CPP
C:\USERS\AAYUSHI\DOWNLOADS\CRYPTOPP565\WIN32\CRYPTLIB\DEBUG\CRYPTLIB.PDB
^C:\USERS\AAYUSHI\DOWNLOADS\CRYPTOPP565\CCM.CPP
C:\USERS\AAYUSHI\DOWNLOADS\CRYPTOPP565\WIN32\CRYPTLIB\DEBUG\CRYPTLIB.PDB
^C:\USERS\AAYUSHI\DOWNLOADS\CRYPTOPP565\CHACHA.CPP
C:\USERS\AAYUSHI\DOWNLOADS\CRYPTOPP565\WIN32\CRYPTLIB\DEBUG\CRYPTLIB.PDB
^C:\USERS\AAYUSHI\DOWNLOADS\CRYPTOPP565\CHANNELS.CPP
C:\USERS\AAYUSHI\DOWNLOADS\CRYPTOPP565\WIN32\CRYPTLIB\DEBUG\CRYPTLIB.PDB
^C:\USERS\AAYUSHI\DOWNLOADS\CRYPTOPP565\CMAC.CPP
C:\USERS\AAYUSHI\DOWNLOADS\CRYPTOPP565\WIN32\CRYPTLIB\DEBUG\CRYPTLIB.PDB
^C:\USERS\AAYUSHI\DOWNLOADS\CRYPTOPP565\CRC.CPP
C:\USERS\AAYUSHI\DOWNLOADS\CRYPTOPP565\WIN32\CRYPTLIB\DEBUG\CRYPTLIB.PDB
^C:\USERS\AAYUSHI\DOWNLOADS\CRYPTOPP565\DEFAULT.CPP
C:\USERS\AAYUSHI\DOWNLOADS\CRYPTOPP565\WIN32\CRYPTLIB\DEBUG\CRYPTLIB.PDB
^C:\USERS\AAYUSHI\DOWNLOADS\CRYPTOPP565\DES.CPP
C:\USERS\AAYUSHI\DOWNLOADS\CRYPTOPP565\WIN32\CRYPTLIB\DEBUG\CRYPTLIB.PDB
^C:\USERS\AAYUSHI\DOWNLOADS\CRYPTOPP565\DESSP.CPP
C:\USERS\AAYUSHI\DOWNLOADS\CRYPTOPP565\WIN32\CRYPTLIB\DEBUG\CRYPTLIB.PDB
^C:\USERS\AAYUSHI\DOWNLOADS\CRYPTOPP565\DH.CPP
C:\USERS\AAYUSHI\DOWNLOADS\CRYPTOPP565\WIN32\CRYPTLIB\DEBUG\CRYPTLIB.PDB
^C:\USERS\AAYUSHI\DOWNLOADS\CRYPTOPP565\DH2.CPP
C:\USERS\AAYUSHI\DOWNLOADS\CRYPTOPP565\WIN32\CRYPTLIB\DEBUG\CRYPTLIB.PDB
^C:\USERS\AAYUSHI\DOWNLOADS\CRYPTOPP565\DSA.CPP
C:\USERS\AAYUSHI\DOWNLOADS\CRYPTOPP565\WIN32\CRYPTLIB\DEBUG\CRYPTLIB.PDB
^C:\USERS\AAYUSHI\DOWNLOADS\CRYPTOPP565\EAX.CPP
C:\USERS\AAYUSHI\DOWNLOADS\CRYPTOPP565\WIN32\CRYPTLIB\DEBUG\CRYPTLIB.PDB
^C:\USERS\AAYUSHI\DOWNLOADS\CRYPTOPP565\EC2N.CPP
C:\USERS\AAYUSHI\DOWNLOADS\CRYPTOPP565\WIN32\CRYPTLIB\DEBUG\CRYPTLIB.PDB
^C:\USERS\AAYUSHI\DOWNLOADS\CRYPTOPP565\ECP.CPP
C:\USERS\AAYUSHI\DOWNLOADS\CRYPTOPP565\WIN32\CRYPTLIB\DEBUG\CRYPTLIB.PDB
^C:\USERS\AAYUSHI\DOWNLOADS\CRYPTOPP565\ELGAMAL.CPP
C:\USERS\AAYUSHI\DOWNLOADS\CRYPTOPP565\WIN32\CRYPTLIB\DEBUG\CRYPTLIB.PDB
^C:\USERS\AAYUSHI\DOWNLOADS\CRYPTOPP565\EMSA2.CPP
C:\USERS\AAYUSHI\DOWNLOADS\CRYPTOPP565\WIN32\CRYPTLIB\DEBUG\CRYPTLIB.PDB
^C:\USERS\AAYUSHI\DOWNLOADS\CRYPTOPP565\ESIGN.CPP
C:\USERS\AAYUSHI\DOWNLOADS\CRYPTOPP565\WIN32\CRYPTLIB\DEBUG\CRYPTLIB.PDB
^C:\USERS\AAYUSHI\DOWNLOADS\CRYPTOPP565\FILES.CPP
C:\USERS\AAYUSHI\DOWNLOADS\CRYPTOPP565\WIN32\CRYPTLIB\DEBUG\CRYPTLIB.PDB
^C:\USERS\AAYUSHI\DOWNLOADS\CRYPTOPP565\FILTERS.CPP
C:\USERS\AAYUSHI\DOWNLOADS\CRYPTOPP565\WIN32\CRYPTLIB\DEBUG\CRYPTLIB.PDB
^C:\USERS\AAYUSHI\DOWNLOADS\CRYPTOPP565\FIPS140.CPP
C:\USERS\AAYUSHI\DOWNLOADS\CRYPTOPP565\WIN32\CRYPTLIB\DEBUG\CRYPTLIB.PDB
^C:\USERS\AAYUSHI\DOWNLOADS\CRYPTOPP565\FIPSTEST.CPP
C:\USERS\AAYUSHI\DOWNLOADS\CRYPTOPP565\WIN32\CRYPTLIB\DEBUG\CRYPTLIB.PDB
^C:\USERS\AAYUSHI\DOWNLOADS\CRYPTOPP565\GCM.CPP
C:\USERS\AAYUSHI\DOWNLOADS\CRYPTOPP565\WIN32\CRYPTLIB\DEBUG\CRYPTLIB.PDB
^C:\USERS\AAYUSHI\DOWNLOADS\CRYPTOPP565\GF256.CPP
C:\USERS\AAYUSHI\DOWNLOADS\CRYPTOPP565\WIN32\CRYPTLIB\DEBUG\CRYPTLIB.PDB
^C:\USERS\AAYUSHI\DOWNLOADS\CRYPTOPP565\GF2_32.CPP
C:\USERS\AAYUSHI\DOWNLOADS\CRYPTOPP565\WIN32\CRYPTLIB\DEBUG\CRYPTLIB.PDB
^C:\USERS\AAYUSHI\DOWNLOADS\CRYPTOPP565\GF2N.CPP
C:\USERS\AAYUSHI\DOWNLOADS\CRYPTOPP565\WIN32\CRYPTLIB\DEBUG\CRYPTLIB.PDB
^C:\USERS\AAYUSHI\DOWNLOADS\CRYPTOPP565\GFPCRYPT.CPP
C:\USERS\AAYUSHI\DOWNLOADS\CRYPTOPP565\WIN32\CRYPTLIB\DEBUG\CRYPTLIB.PDB
^C:\USERS\AAYUSHI\DOWNLOADS\CRYPTOPP565\GOST.CPP
C:\USERS\AAYUSHI\DOWNLOADS\CRYPTOPP565\WIN32\CRYPTLIB\DEBUG\CRYPTLIB.PDB
^C:\USERS\AAYUSHI\DOWNLOADS\CRYPTOPP565\GZIP.CPP
C:\USERS\AAYUSHI\DOWNLOADS\CRYPTOPP565\WIN32\CRYPTLIB\DEBUG\CRYPTLIB.PDB
^C:\USERS\AAYUSHI\DOWNLOADS\CRYPTOPP565\HEX.CPP
C:\USERS\AAYUSHI\DOWNLOADS\CRYPTOPP565\WIN32\CRYPTLIB\DEBUG\CRYPTLIB.PDB
^C:\USERS\AAYUSHI\DOWNLOADS\CRYPTOPP565\HMAC.CPP
C:\USERS\AAYUSHI\DOWNLOADS\CRYPTOPP565\WIN32\CRYPTLIB\DEBUG\CRYPTLIB.PDB
^C:\USERS\AAYUSHI\DOWNLOADS\CRYPTOPP565\HRTIMER.CPP
C:\USERS\AAYUSHI\DOWNLOADS\CRYPTOPP565\WIN32\CRYPTLIB\DEBUG\CRYPTLIB.PDB
^C:\USERS\AAYUSHI\DOWNLOADS\CRYPTOPP565\IDA.CPP
C:\USERS\AAYUSHI\DOWNLOADS\CRYPTOPP565\WIN32\CRYPTLIB\DEBUG\CRYPTLIB.PDB
^C:\USERS\AAYUSHI\DOWNLOADS\CRYPTOPP565\IDEA.CPP
C:\USERS\AAYUSHI\DOWNLOADS\CRYPTOPP565\WIN32\CRYPTLIB\DEBUG\CRYPTLIB.PDB
^C:\USERS\AAYUSHI\DOWNLOADS\CRYPTOPP565\KECCAK.CPP
C:\USERS\AAYUSHI\DOWNLOADS\CRYPTOPP565\WIN32\CRYPTLIB\DEBUG\CRYPTLIB.PDB
^C:\USERS\AAYUSHI\DOWNLOADS\CRYPTOPP565\LUC.CPP
C:\USERS\AAYUSHI\DOWNLOADS\CRYPTOPP565\WIN32\CRYPTLIB\DEBUG\CRYPTLIB.PDB
^C:\USERS\AAYUSHI\DOWNLOADS\CRYPTOPP565\MARS.CPP
C:\USERS\AAYUSHI\DOWNLOADS\CRYPTOPP565\WIN32\CRYPTLIB\DEBUG\CRYPTLIB.PDB
^C:\USERS\AAYUSHI\DOWNLOADS\CRYPTOPP565\MARSS.CPP
C:\USERS\AAYUSHI\DOWNLOADS\CRYPTOPP565\WIN32\CRYPTLIB\DEBUG\CRYPTLIB.PDB
^C:\USERS\AAYUSHI\DOWNLOADS\CRYPTOPP565\MD2.CPP
C:\USERS\AAYUSHI\DOWNLOADS\CRYPTOPP565\WIN32\CRYPTLIB\DEBUG\CRYPTLIB.PDB
^C:\USERS\AAYUSHI\DOWNLOADS\CRYPTOPP565\MD4.CPP
C:\USERS\AAYUSHI\DOWNLOADS\CRYPTOPP565\WIN32\CRYPTLIB\DEBUG\CRYPTLIB.PDB
^C:\USERS\AAYUSHI\DOWNLOADS\CRYPTOPP565\MD5.CPP
C:\USERS\AAYUSHI\DOWNLOADS\CRYPTOPP565\WIN32\CRYPTLIB\DEBUG\CRYPTLIB.PDB
^C:\USERS\AAYUSHI\DOWNLOADS\CRYPTOPP565\MISC.CPP
C:\USERS\AAYUSHI\DOWNLOADS\CRYPTOPP565\WIN32\CRYPTLIB\DEBUG\CRYPTLIB.PDB
^C:\USERS\AAYUSHI\DOWNLOADS\CRYPTOPP565\MODES.CPP
C:\USERS\AAYUSHI\DOWNLOADS\CRYPTOPP565\WIN32\CRYPTLIB\DEBUG\CRYPTLIB.PDB
^C:\USERS\AAYUSHI\DOWNLOADS\CRYPTOPP565\MQUEUE.CPP
C:\USERS\AAYUSHI\DOWNLOADS\CRYPTOPP565\WIN32\CRYPTLIB\DEBUG\CRYPTLIB.PDB
^C:\USERS\AAYUSHI\DOWNLOADS\CRYPTOPP565\MQV.CPP
C:\USERS\AAYUSHI\DOWNLOADS\CRYPTOPP565\WIN32\CRYPTLIB\DEBUG\CRYPTLIB.PDB
^C:\USERS\AAYUSHI\DOWNLOADS\CRYPTOPP565\NBTHEORY.CPP
C:\USERS\AAYUSHI\DOWNLOADS\CRYPTOPP565\WIN32\CRYPTLIB\DEBUG\CRYPTLIB.PDB
^C:\USERS\AAYUSHI\DOWNLOADS\CRYPTOPP565\NETWORK.CPP
C:\USERS\AAYUSHI\DOWNLOADS\CRYPTOPP565\WIN32\CRYPTLIB\DEBUG\CRYPTLIB.PDB
^C:\USERS\AAYUSHI\DOWNLOADS\CRYPTOPP565\OAEP.CPP
C:\USERS\AAYUSHI\DOWNLOADS\CRYPTOPP565\WIN32\CRYPTLIB\DEBUG\CRYPTLIB.PDB
^C:\USERS\AAYUSHI\DOWNLOADS\CRYPTOPP565\OSRNG.CPP
C:\USERS\AAYUSHI\DOWNLOADS\CRYPTOPP565\WIN32\CRYPTLIB\DEBUG\CRYPTLIB.PDB
^C:\USERS\AAYUSHI\DOWNLOADS\CRYPTOPP565\PANAMA.CPP
C:\USERS\AAYUSHI\DOWNLOADS\CRYPTOPP565\WIN32\CRYPTLIB\DEBUG\CRYPTLIB.PDB
^C:\USERS\AAYUSHI\DOWNLOADS\CRYPTOPP565\PKCSPAD.CPP
C:\USERS\AAYUSHI\DOWNLOADS\CRYPTOPP565\WIN32\CRYPTLIB\DEBUG\CRYPTLIB.PDB
^C:\USERS\AAYUSHI\DOWNLOADS\CRYPTOPP565\POLYNOMI.CPP
C:\USERS\AAYUSHI\DOWNLOADS\CRYPTOPP565\WIN32\CRYPTLIB\DEBUG\CRYPTLIB.PDB
^C:\USERS\AAYUSHI\DOWNLOADS\CRYPTOPP565\PSSR.CPP
C:\USERS\AAYUSHI\DOWNLOADS\CRYPTOPP565\WIN32\CRYPTLIB\DEBUG\CRYPTLIB.PDB
^C:\USERS\AAYUSHI\DOWNLOADS\CRYPTOPP565\PUBKEY.CPP
C:\USERS\AAYUSHI\DOWNLOADS\CRYPTOPP565\WIN32\CRYPTLIB\DEBUG\CRYPTLIB.PDB
^C:\USERS\AAYUSHI\DOWNLOADS\CRYPTOPP565\QUEUE.CPP
C:\USERS\AAYUSHI\DOWNLOADS\CRYPTOPP565\WIN32\CRYPTLIB\DEBUG\CRYPTLIB.PDB
^C:\USERS\AAYUSHI\DOWNLOADS\CRYPTOPP565\RABIN.CPP
C:\USERS\AAYUSHI\DOWNLOADS\CRYPTOPP565\WIN32\CRYPTLIB\DEBUG\CRYPTLIB.PDB
^C:\USERS\AAYUSHI\DOWNLOADS\CRYPTOPP565\RANDPOOL.CPP
C:\USERS\AAYUSHI\DOWNLOADS\CRYPTOPP565\WIN32\CRYPTLIB\DEBUG\CRYPTLIB.PDB
^C:\USERS\AAYUSHI\DOWNLOADS\CRYPTOPP565\RC2.CPP
C:\USERS\AAYUSHI\DOWNLOADS\CRYPTOPP565\WIN32\CRYPTLIB\DEBUG\CRYPTLIB.PDB
^C:\USERS\AAYUSHI\DOWNLOADS\CRYPTOPP565\RC5.CPP
C:\USERS\AAYUSHI\DOWNLOADS\CRYPTOPP565\WIN32\CRYPTLIB\DEBUG\CRYPTLIB.PDB
^C:\USERS\AAYUSHI\DOWNLOADS\CRYPTOPP565\RC6.CPP
C:\USERS\AAYUSHI\DOWNLOADS\CRYPTOPP565\WIN32\CRYPTLIB\DEBUG\CRYPTLIB.PDB
^C:\USERS\AAYUSHI\DOWNLOADS\CRYPTOPP565\RDRAND.CPP
C:\USERS\AAYUSHI\DOWNLOADS\CRYPTOPP565\WIN32\CRYPTLIB\DEBUG\CRYPTLIB.PDB
^C:\USERS\AAYUSHI\DOWNLOADS\CRYPTOPP565\RDTABLES.CPP
C:\USERS\AAYUSHI\DOWNLOADS\CRYPTOPP565\WIN32\CRYPTLIB\DEBUG\CRYPTLIB.PDB
^C:\USERS\AAYUSHI\DOWNLOADS\CRYPTOPP565\RIJNDAEL.CPP
C:\USERS\AAYUSHI\DOWNLOADS\CRYPTOPP565\WIN32\CRYPTLIB\DEBUG\CRYPTLIB.PDB
^C:\USERS\AAYUSHI\DOWNLOADS\CRYPTOPP565\RIPEMD.CPP
C:\USERS\AAYUSHI\DOWNLOADS\CRYPTOPP565\WIN32\CRYPTLIB\DEBUG\CRYPTLIB.PDB
^C:\USERS\AAYUSHI\DOWNLOADS\CRYPTOPP565\RNG.CPP
C:\USERS\AAYUSHI\DOWNLOADS\CRYPTOPP565\WIN32\CRYPTLIB\DEBUG\CRYPTLIB.PDB
^C:\USERS\AAYUSHI\DOWNLOADS\CRYPTOPP565\RSA.CPP
C:\USERS\AAYUSHI\DOWNLOADS\CRYPTOPP565\WIN32\CRYPTLIB\DEBUG\CRYPTLIB.PDB
^C:\USERS\AAYUSHI\DOWNLOADS\CRYPTOPP565\RW.CPP
C:\USERS\AAYUSHI\DOWNLOADS\CRYPTOPP565\WIN32\CRYPTLIB\DEBUG\CRYPTLIB.PDB
^C:\USERS\AAYUSHI\DOWNLOADS\CRYPTOPP565\SAFER.CPP
C:\USERS\AAYUSHI\DOWNLOADS\CRYPTOPP565\WIN32\CRYPTLIB\DEBUG\CRYPTLIB.PDB
^C:\USERS\AAYUSHI\DOWNLOADS\CRYPTOPP565\SALSA.CPP
C:\USERS\AAYUSHI\DOWNLOADS\CRYPTOPP565\WIN32\CRYPTLIB\DEBUG\CRYPTLIB.PDB
^C:\USERS\AAYUSHI\DOWNLOADS\CRYPTOPP565\SEAL.CPP
C:\USERS\AAYUSHI\DOWNLOADS\CRYPTOPP565\WIN32\CRYPTLIB\DEBUG\CRYPTLIB.PDB
^C:\USERS\AAYUSHI\DOWNLOADS\CRYPTOPP565\SEED.CPP
C:\USERS\AAYUSHI\DOWNLOADS\CRYPTOPP565\WIN32\CRYPTLIB\DEBUG\CRYPTLIB.PDB
^C:\USERS\AAYUSHI\DOWNLOADS\CRYPTOPP565\SERPENT.CPP
C:\USERS\AAYUSHI\DOWNLOADS\CRYPTOPP565\WIN32\CRYPTLIB\DEBUG\CRYPTLIB.PDB
^C:\USERS\AAYUSHI\DOWNLOADS\CRYPTOPP565\SHA.CPP
C:\USERS\AAYUSHI\DOWNLOADS\CRYPTOPP565\WIN32\CRYPTLIB\DEBUG\CRYPTLIB.PDB
^C:\USERS\AAYUSHI\DOWNLOADS\CRYPTOPP565\SHA3.CPP
C:\USERS\AAYUSHI\DOWNLOADS\CRYPTOPP565\WIN32\CRYPTLIB\DEBUG\CRYPTLIB.PDB
^C:\USERS\AAYUSHI\DOWNLOADS\CRYPTOPP565\SHACAL2.CPP
C:\USERS\AAYUSHI\DOWNLOADS\CRYPTOPP565\WIN32\CRYPTLIB\DEBUG\CRYPTLIB.PDB
^C:\USERS\AAYUSHI\DOWNLOADS\CRYPTOPP565\SHARK.CPP
C:\USERS\AAYUSHI\DOWNLOADS\CRYPTOPP565\WIN32\CRYPTLIB\DEBUG\CRYPTLIB.PDB
^C:\USERS\AAYUSHI\DOWNLOADS\CRYPTOPP565\SHARKBOX.CPP
C:\USERS\AAYUSHI\DOWNLOADS\CRYPTOPP565\WIN32\CRYPTLIB\DEBUG\CRYPTLIB.PDB
^C:\USERS\AAYUSHI\DOWNLOADS\CRYPTOPP565\SIMPLE.CPP
C:\USERS\AAYUSHI\DOWNLOADS\CRYPTOPP565\WIN32\CRYPTLIB\DEBUG\CRYPTLIB.PDB
^C:\USERS\AAYUSHI\DOWNLOADS\CRYPTOPP565\SKIPJACK.CPP
C:\USERS\AAYUSHI\DOWNLOADS\CRYPTOPP565\WIN32\CRYPTLIB\DEBUG\CRYPTLIB.PDB
^C:\USERS\AAYUSHI\DOWNLOADS\CRYPTOPP565\SOCKETFT.CPP
C:\USERS\AAYUSHI\DOWNLOADS\CRYPTOPP565\WIN32\CRYPTLIB\DEBUG\CRYPTLIB.PDB
^C:\USERS\AAYUSHI\DOWNLOADS\CRYPTOPP565\SOSEMANUK.CPP
C:\USERS\AAYUSHI\DOWNLOADS\CRYPTOPP565\WIN32\CRYPTLIB\DEBUG\CRYPTLIB.PDB
^C:\USERS\AAYUSHI\DOWNLOADS\CRYPTOPP565\SQUARE.CPP
C:\USERS\AAYUSHI\DOWNLOADS\CRYPTOPP565\WIN32\CRYPTLIB\DEBUG\CRYPTLIB.PDB
^C:\USERS\AAYUSHI\DOWNLOADS\CRYPTOPP565\SQUARETB.CPP
C:\USERS\AAYUSHI\DOWNLOADS\CRYPTOPP565\WIN32\CRYPTLIB\DEBUG\CRYPTLIB.PDB
^C:\USERS\AAYUSHI\DOWNLOADS\CRYPTOPP565\STRCIPHR.CPP
C:\USERS\AAYUSHI\DOWNLOADS\CRYPTOPP565\WIN32\CRYPTLIB\DEBUG\CRYPTLIB.PDB
^C:\USERS\AAYUSHI\DOWNLOADS\CRYPTOPP565\TEA.CPP
C:\USERS\AAYUSHI\DOWNLOADS\CRYPTOPP565\WIN32\CRYPTLIB\DEBUG\CRYPTLIB.PDB
^C:\USERS\AAYUSHI\DOWNLOADS\CRYPTOPP565\TFTABLES.CPP
C:\USERS\AAYUSHI\DOWNLOADS\CRYPTOPP565\WIN32\CRYPTLIB\DEBUG\CRYPTLIB.PDB
^C:\USERS\AAYUSHI\DOWNLOADS\CRYPTOPP565\TIGER.CPP
C:\USERS\AAYUSHI\DOWNLOADS\CRYPTOPP565\WIN32\CRYPTLIB\DEBUG\CRYPTLIB.PDB
^C:\USERS\AAYUSHI\DOWNLOADS\CRYPTOPP565\TIGERTAB.CPP
C:\USERS\AAYUSHI\DOWNLOADS\CRYPTOPP565\WIN32\CRYPTLIB\DEBUG\CRYPTLIB.PDB
^C:\USERS\AAYUSHI\DOWNLOADS\CRYPTOPP565\TRDLOCAL.CPP
C:\USERS\AAYUSHI\DOWNLOADS\CRYPTOPP565\WIN32\CRYPTLIB\DEBUG\CRYPTLIB.PDB
^C:\USERS\AAYUSHI\DOWNLOADS\CRYPTOPP565\TTMAC.CPP
C:\USERS\AAYUSHI\DOWNLOADS\CRYPTOPP565\WIN32\CRYPTLIB\DEBUG\CRYPTLIB.PDB
^C:\USERS\AAYUSHI\DOWNLOADS\CRYPTOPP565\TWOFISH.CPP
C:\USERS\AAYUSHI\DOWNLOADS\CRYPTOPP565\WIN32\CRYPTLIB\DEBUG\CRYPTLIB.PDB
^C:\USERS\AAYUSHI\DOWNLOADS\CRYPTOPP565\VMAC.CPP
C:\USERS\AAYUSHI\DOWNLOADS\CRYPTOPP565\WIN32\CRYPTLIB\DEBUG\CRYPTLIB.PDB
^C:\USERS\AAYUSHI\DOWNLOADS\CRYPTOPP565\WAIT.CPP
C:\USERS\AAYUSHI\DOWNLOADS\CRYPTOPP565\WIN32\CRYPTLIB\DEBUG\CRYPTLIB.PDB
^C:\USERS\AAYUSHI\DOWNLOADS\CRYPTOPP565\WAKE.CPP
C:\USERS\AAYUSHI\DOWNLOADS\CRYPTOPP565\WIN32\CRYPTLIB\DEBUG\CRYPTLIB.PDB
^C:\USERS\AAYUSHI\DOWNLOADS\CRYPTOPP565\WHRLPOOL.CPP
C:\USERS\AAYUSHI\DOWNLOADS\CRYPTOPP565\WIN32\CRYPTLIB\DEBUG\CRYPTLIB.PDB
^C:\USERS\AAYUSHI\DOWNLOADS\CRYPTOPP565\WINPIPES.CPP
C:\USERS\AAYUSHI\DOWNLOADS\CRYPTOPP565\WIN32\CRYPTLIB\DEBUG\CRYPTLIB.PDB
^C:\USERS\AAYUSHI\DOWNLOADS\CRYPTOPP565\XTR.CPP
C:\USERS\AAYUSHI\DOWNLOADS\CRYPTOPP565\WIN32\CRYPTLIB\DEBUG\CRYPTLIB.PDB
^C:\USERS\AAYUSHI\DOWNLOADS\CRYPTOPP565\XTRCRYPT.CPP
C:\USERS\AAYUSHI\DOWNLOADS\CRYPTOPP565\WIN32\CRYPTLIB\DEBUG\CRYPTLIB.PDB
^C:\USERS\AAYUSHI\DOWNLOADS\CRYPTOPP565\ZDEFLATE.CPP
C:\USERS\AAYUSHI\DOWNLOADS\CRYPTOPP565\WIN32\CRYPTLIB\DEBUG\CRYPTLIB.PDB
^C:\USERS\AAYUSHI\DOWNLOADS\CRYPTOPP565\ZINFLATE.CPP
C:\USERS\AAYUSHI\DOWNLOADS\CRYPTOPP565\WIN32\CRYPTLIB\DEBUG\CRYPTLIB.PDB
^C:\USERS\AAYUSHI\DOWNLOADS\CRYPTOPP565\ZLIB.CPP
C:\USERS\AAYUSHI\DOWNLOADS\CRYPTOPP565\WIN32\CRYPTLIB\DEBUG\CRYPTLIB.PDB
^C:\USERS\AAYUSHI\DOWNLOADS\CRYPTOPP565\DLL.CPP|C:\USERS\AAYUSHI\DOWNLOADS\CRYPTOPP565\ITERHASH.CPP
C:\USERS\AAYUSHI\DOWNLOADS\CRYPTOPP565\WIN32\CRYPTLIB\DEBUG\CRYPTLIB.PDB
C:\USERS\AAYUSHI\DOWNLOADS\CRYPTOPP565\WIN32\CRYPTLIB\DEBUG\ITERHASH.OBJ
C:\USERS\AAYUSHI\DOWNLOADS\CRYPTOPP565\WIN32\CRYPTLIB\DEBUG\DLL.OBJ
^C:\USERS\AAYUSHI\DOWNLOADS\CRYPTOPP565\DLL.CPP
C:\USERS\AAYUSHI\DOWNLOADS\CRYPTOPP565\WIN32\CRYPTLIB\DEBUG\CRYPTLIB.PDB
^C:\USERS\AAYUSHI\DOWNLOADS\CRYPTOPP565\ITERHASH.CPP
C:\USERS\AAYUSHI\DOWNLOADS\CRYPTOPP565\WIN32\CRYPTLIB\DEBUG\CRYPTLIB.PDB
